{
   "end_point":"/rest/v1/feed",
   "params":[
      "start_date",
      "end_date",
      "detailed"
   ],
   "required_params":[
      "end_date"
   ],
   "response_codes":[
      200,
      401,
      403,
      404
   ],
   "methods":[
      "GET",
      "POST"
   ],
   "header":{
      "content-type":"application/json;charset=UTF-8",
      "x-ratelimit-limit":"1000"
   },
   "schema1": {
      "type":"object",
      "properties":{
         "links": {"type" : "object"},
         "element_count": {"type" : "number"},
         "near_earth_objects": {"type" : "object"}
      }
   },
   "schema":{
      "type":"object",
      "required":[
         "links",
         "element_count",
         "near_earth_objects"
      ],
      "properties":{
         "links":{
            "$id":"#/properties/links",
            "type":"object",
            "title":"The Links Schema",
            "required":[
               "next",
               "prev",
               "self"
            ],
            "properties":{
               "next":{
                  "$id":"#/properties/links/properties/next",
                  "type":"string",
                  "title":"The Next Schema",
                  "default":"",
                  "examples":[
                     "https://api.nasa.gov/neo/rest/v1/feed?start_date=2015-04-29&end_date=2015-04-29&detailed=true&api_key=vKimzjnHciR3cNJS64awuMnRRbI6r4v1S0bgqpyO"
                  ],
                  "pattern":"^(.*)$"
               },
               "prev":{
                  "$id":"#/properties/links/properties/prev",
                  "type":"string",
                  "title":"The Prev Schema",
                  "default":"",
                  "examples":[
                     "https://api.nasa.gov/neo/rest/v1/feed?start_date=2015-04-27&end_date=2015-04-27&detailed=true&api_key=vKimzjnHciR3cNJS64awuMnRRbI6r4v1S0bgqpyO"
                  ],
                  "pattern":"^(.*)$"
               },
               "self":{
                  "$id":"#/properties/links/properties/self",
                  "type":"string",
                  "title":"The Self Schema",
                  "default":"",
                  "examples":[
                     "https://api.nasa.gov/neo/rest/v1/feed?start_date=2015-04-28&end_date=2015-04-28&detailed=true&api_key=vKimzjnHciR3cNJS64awuMnRRbI6r4v1S0bgqpyO"
                  ],
                  "pattern":"^(.*)$"
               }
            }
         },
         "element_count":{
            "$id":"#/properties/element_count",
            "type":"integer",
            "title":"The Element_count Schema",
            "default":0,
            "examples":[
               4
            ]
         },
         "near_earth_objects":{
            "$id":"#/properties/near_earth_objects",
            "type":"object",
            "title":"The Near_earth_objects Schema",
            "required":[
               "2015-04-28"
            ],
            "properties":{
               "2015-04-28":{
                  "$id":"#/properties/near_earth_objects/properties/2015-04-28",
                  "type":"array",
                  "title":"The 2015-04-28 Schema",
                  "items":{
                     "$id":"#/properties/near_earth_objects/properties/2015-04-28/items",
                     "type":"object",
                     "title":"The Items Schema",
                     "required":[
                        "links",
                        "id",
                        "neo_reference_id",
                        "name",
                        "nasa_jpl_url",
                        "absolute_magnitude_h",
                        "estimated_diameter",
                        "is_potentially_hazardous_asteroid",
                        "close_approach_data",
                        "orbital_data",
                        "is_sentry_object"
                     ],
                     "properties":{
                        "links":{
                           "$id":"#/properties/near_earth_objects/properties/2015-04-28/items/properties/links",
                           "type":"object",
                           "title":"The Links Schema",
                           "required":[
                              "self"
                           ],
                           "properties":{
                              "self":{
                                 "$id":"#/properties/near_earth_objects/properties/2015-04-28/items/properties/links/properties/self",
                                 "type":"string",
                                 "title":"The Self Schema",
                                 "default":"",
                                 "examples":[
                                    "https://api.nasa.gov/neo/rest/v1/neo/3715908?api_key=vKimzjnHciR3cNJS64awuMnRRbI6r4v1S0bgqpyO"
                                 ],
                                 "pattern":"^(.*)$"
                              }
                           }
                        },
                        "id":{
                           "$id":"#/properties/near_earth_objects/properties/2015-04-28/items/properties/id",
                           "type":"string",
                           "title":"The Id Schema",
                           "default":"",
                           "examples":[
                              "3715908"
                           ],
                           "pattern":"^(.*)$"
                        },
                        "neo_reference_id":{
                           "$id":"#/properties/near_earth_objects/properties/2015-04-28/items/properties/neo_reference_id",
                           "type":"string",
                           "title":"The Neo_reference_id Schema",
                           "default":"",
                           "examples":[
                              "3715908"
                           ],
                           "pattern":"^(.*)$"
                        },
                        "name":{
                           "$id":"#/properties/near_earth_objects/properties/2015-04-28/items/properties/name",
                           "type":"string",
                           "title":"The Name Schema",
                           "default":"",
                           "examples":[
                              "(2015 GB14)"
                           ],
                           "pattern":"^(.*)$"
                        },
                        "nasa_jpl_url":{
                           "$id":"#/properties/near_earth_objects/properties/2015-04-28/items/properties/nasa_jpl_url",
                           "type":"string",
                           "title":"The Nasa_jpl_url Schema",
                           "default":"",
                           "examples":[
                              "http://ssd.jpl.nasa.gov/sbdb.cgi?sstr=3715908"
                           ],
                           "pattern":"^(.*)$"
                        },
                        "absolute_magnitude_h":{
                           "$id":"#/properties/near_earth_objects/properties/2015-04-28/items/properties/absolute_magnitude_h",
                           "type":"number",
                           "title":"The Absolute_magnitude_h Schema",
                           "default":0.0,
                           "examples":[
                              25.4
                           ]
                        },
                        "estimated_diameter":{
                           "$id":"#/properties/near_earth_objects/properties/2015-04-28/items/properties/estimated_diameter",
                           "type":"object",
                           "title":"The Estimated_diameter Schema",
                           "required":[
                              "kilometers",
                              "meters",
                              "miles",
                              "feet"
                           ],
                           "properties":{
                              "kilometers":{
                                 "$id":"#/properties/near_earth_objects/properties/2015-04-28/items/properties/estimated_diameter/properties/kilometers",
                                 "type":"object",
                                 "title":"The Kilometers Schema",
                                 "required":[
                                    "estimated_diameter_min",
                                    "estimated_diameter_max"
                                 ],
                                 "properties":{
                                    "estimated_diameter_min":{
                                       "$id":"#/properties/near_earth_objects/properties/2015-04-28/items/properties/estimated_diameter/properties/kilometers/properties/estimated_diameter_min",
                                       "type":"number",
                                       "title":"The Estimated_diameter_min Schema",
                                       "default":0.0,
                                       "examples":[
                                          0.022108281
                                       ]
                                    },
                                    "estimated_diameter_max":{
                                       "$id":"#/properties/near_earth_objects/properties/2015-04-28/items/properties/estimated_diameter/properties/kilometers/properties/estimated_diameter_max",
                                       "type":"number",
                                       "title":"The Estimated_diameter_max Schema",
                                       "default":0.0,
                                       "examples":[
                                          0.0494356193
                                       ]
                                    }
                                 }
                              },
                              "meters":{
                                 "$id":"#/properties/near_earth_objects/properties/2015-04-28/items/properties/estimated_diameter/properties/meters",
                                 "type":"object",
                                 "title":"The Meters Schema",
                                 "required":[
                                    "estimated_diameter_min",
                                    "estimated_diameter_max"
                                 ],
                                 "properties":{
                                    "estimated_diameter_min":{
                                       "$id":"#/properties/near_earth_objects/properties/2015-04-28/items/properties/estimated_diameter/properties/meters/properties/estimated_diameter_min",
                                       "type":"number",
                                       "title":"The Estimated_diameter_min Schema",
                                       "default":0.0,
                                       "examples":[
                                          22.1082810359
                                       ]
                                    },
                                    "estimated_diameter_max":{
                                       "$id":"#/properties/near_earth_objects/properties/2015-04-28/items/properties/estimated_diameter/properties/meters/properties/estimated_diameter_max",
                                       "type":"number",
                                       "title":"The Estimated_diameter_max Schema",
                                       "default":0.0,
                                       "examples":[
                                          49.435619262
                                       ]
                                    }
                                 }
                              },
                              "miles":{
                                 "$id":"#/properties/near_earth_objects/properties/2015-04-28/items/properties/estimated_diameter/properties/miles",
                                 "type":"object",
                                 "title":"The Miles Schema",
                                 "required":[
                                    "estimated_diameter_min",
                                    "estimated_diameter_max"
                                 ],
                                 "properties":{
                                    "estimated_diameter_min":{
                                       "$id":"#/properties/near_earth_objects/properties/2015-04-28/items/properties/estimated_diameter/properties/miles/properties/estimated_diameter_min",
                                       "type":"number",
                                       "title":"The Estimated_diameter_min Schema",
                                       "default":0.0,
                                       "examples":[
                                          0.0137374447
                                       ]
                                    },
                                    "estimated_diameter_max":{
                                       "$id":"#/properties/near_earth_objects/properties/2015-04-28/items/properties/estimated_diameter/properties/miles/properties/estimated_diameter_max",
                                       "type":"number",
                                       "title":"The Estimated_diameter_max Schema",
                                       "default":0.0,
                                       "examples":[
                                          0.0307178602
                                       ]
                                    }
                                 }
                              },
                              "feet":{
                                 "$id":"#/properties/near_earth_objects/properties/2015-04-28/items/properties/estimated_diameter/properties/feet",
                                 "type":"object",
                                 "title":"The Feet Schema",
                                 "required":[
                                    "estimated_diameter_min",
                                    "estimated_diameter_max"
                                 ],
                                 "properties":{
                                    "estimated_diameter_min":{
                                       "$id":"#/properties/near_earth_objects/properties/2015-04-28/items/properties/estimated_diameter/properties/feet/properties/estimated_diameter_min",
                                       "type":"number",
                                       "title":"The Estimated_diameter_min Schema",
                                       "default":0.0,
                                       "examples":[
                                          72.5337327539
                                       ]
                                    },
                                    "estimated_diameter_max":{
                                       "$id":"#/properties/near_earth_objects/properties/2015-04-28/items/properties/estimated_diameter/properties/feet/properties/estimated_diameter_max",
                                       "type":"number",
                                       "title":"The Estimated_diameter_max Schema",
                                       "default":0.0,
                                       "examples":[
                                          162.1903570994
                                       ]
                                    }
                                 }
                              }
                           }
                        },
                        "is_potentially_hazardous_asteroid":{
                           "$id":"#/properties/near_earth_objects/properties/2015-04-28/items/properties/is_potentially_hazardous_asteroid",
                           "type":"boolean",
                           "title":"The Is_potentially_hazardous_asteroid Schema",
                           "default":false,
                           "examples":[
                              false
                           ]
                        },
                        "close_approach_data":{
                           "$id":"#/properties/near_earth_objects/properties/2015-04-28/items/properties/close_approach_data",
                           "type":"array",
                           "title":"The Close_approach_data Schema",
                           "items":{
                              "$id":"#/properties/near_earth_objects/properties/2015-04-28/items/properties/close_approach_data/items",
                              "type":"object",
                              "title":"The Items Schema",
                              "required":[
                                 "close_approach_date",
                                 "epoch_date_close_approach",
                                 "relative_velocity",
                                 "miss_distance",
                                 "orbiting_body"
                              ],
                              "properties":{
                                 "close_approach_date":{
                                    "$id":"#/properties/near_earth_objects/properties/2015-04-28/items/properties/close_approach_data/items/properties/close_approach_date",
                                    "type":"string",
                                    "title":"The Close_approach_date Schema",
                                    "default":"",
                                    "examples":[
                                       "2015-04-28"
                                    ],
                                    "pattern":"^(.*)$"
                                 },
                                 "epoch_date_close_approach":{
                                    "$id":"#/properties/near_earth_objects/properties/2015-04-28/items/properties/close_approach_data/items/properties/epoch_date_close_approach",
                                    "type":"integer",
                                    "title":"The Epoch_date_close_approach Schema",
                                    "default":0,
                                    "examples":[
                                       1430204400000
                                    ]
                                 },
                                 "relative_velocity":{
                                    "$id":"#/properties/near_earth_objects/properties/2015-04-28/items/properties/close_approach_data/items/properties/relative_velocity",
                                    "type":"object",
                                    "title":"The Relative_velocity Schema",
                                    "required":[
                                       "kilometers_per_second",
                                       "kilometers_per_hour",
                                       "miles_per_hour"
                                    ],
                                    "properties":{
                                       "kilometers_per_second":{
                                          "$id":"#/properties/near_earth_objects/properties/2015-04-28/items/properties/close_approach_data/items/properties/relative_velocity/properties/kilometers_per_second",
                                          "type":"string",
                                          "title":"The Kilometers_per_second Schema",
                                          "default":"",
                                          "examples":[
                                             "12.2007671082"
                                          ],
                                          "pattern":"^(.*)$"
                                       },
                                       "kilometers_per_hour":{
                                          "$id":"#/properties/near_earth_objects/properties/2015-04-28/items/properties/close_approach_data/items/properties/relative_velocity/properties/kilometers_per_hour",
                                          "type":"string",
                                          "title":"The Kilometers_per_hour Schema",
                                          "default":"",
                                          "examples":[
                                             "43922.7615896604"
                                          ],
                                          "pattern":"^(.*)$"
                                       },
                                       "miles_per_hour":{
                                          "$id":"#/properties/near_earth_objects/properties/2015-04-28/items/properties/close_approach_data/items/properties/relative_velocity/properties/miles_per_hour",
                                          "type":"string",
                                          "title":"The Miles_per_hour Schema",
                                          "default":"",
                                          "examples":[
                                             "27291.8959444198"
                                          ],
                                          "pattern":"^(.*)$"
                                       }
                                    }
                                 },
                                 "miss_distance":{
                                    "$id":"#/properties/near_earth_objects/properties/2015-04-28/items/properties/close_approach_data/items/properties/miss_distance",
                                    "type":"object",
                                    "title":"The Miss_distance Schema",
                                    "required":[
                                       "astronomical",
                                       "lunar",
                                       "kilometers",
                                       "miles"
                                    ],
                                    "properties":{
                                       "astronomical":{
                                          "$id":"#/properties/near_earth_objects/properties/2015-04-28/items/properties/close_approach_data/items/properties/miss_distance/properties/astronomical",
                                          "type":"string",
                                          "title":"The Astronomical Schema",
                                          "default":"",
                                          "examples":[
                                             "0.0229845636"
                                          ],
                                          "pattern":"^(.*)$"
                                       },
                                       "lunar":{
                                          "$id":"#/properties/near_earth_objects/properties/2015-04-28/items/properties/close_approach_data/items/properties/miss_distance/properties/lunar",
                                          "type":"string",
                                          "title":"The Lunar Schema",
                                          "default":"",
                                          "examples":[
                                             "8.9409952164"
                                          ],
                                          "pattern":"^(.*)$"
                                       },
                                       "kilometers":{
                                          "$id":"#/properties/near_earth_objects/properties/2015-04-28/items/properties/close_approach_data/items/properties/miss_distance/properties/kilometers",
                                          "type":"string",
                                          "title":"The Kilometers Schema",
                                          "default":"",
                                          "examples":[
                                             "3438442"
                                          ],
                                          "pattern":"^(.*)$"
                                       },
                                       "miles":{
                                          "$id":"#/properties/near_earth_objects/properties/2015-04-28/items/properties/close_approach_data/items/properties/miss_distance/properties/miles",
                                          "type":"string",
                                          "title":"The Miles Schema",
                                          "default":"",
                                          "examples":[
                                             "2136548.75"
                                          ],
                                          "pattern":"^(.*)$"
                                       }
                                    }
                                 },
                                 "orbiting_body":{
                                    "$id":"#/properties/near_earth_objects/properties/2015-04-28/items/properties/close_approach_data/items/properties/orbiting_body",
                                    "type":"string",
                                    "title":"The Orbiting_body Schema",
                                    "default":"",
                                    "examples":[
                                       "Earth"
                                    ],
                                    "pattern":"^(.*)$"
                                 }
                              }
                           }
                        },
                        "orbital_data":{
                           "$id":"#/properties/near_earth_objects/properties/2015-04-28/items/properties/orbital_data",
                           "type":"object",
                           "title":"The Orbital_data Schema",
                           "required":[
                              "orbit_id",
                              "orbit_determination_date",
                              "first_observation_date",
                              "last_observation_date",
                              "data_arc_in_days",
                              "observations_used",
                              "orbit_uncertainty",
                              "minimum_orbit_intersection",
                              "jupiter_tisserand_invariant",
                              "epoch_osculation",
                              "eccentricity",
                              "semi_major_axis",
                              "inclination",
                              "ascending_node_longitude",
                              "orbital_period",
                              "perihelion_distance",
                              "perihelion_argument",
                              "aphelion_distance",
                              "perihelion_time",
                              "mean_anomaly",
                              "mean_motion",
                              "equinox",
                              "orbit_class"
                           ],
                           "properties":{
                              "orbit_id":{
                                 "$id":"#/properties/near_earth_objects/properties/2015-04-28/items/properties/orbital_data/properties/orbit_id",
                                 "type":"string",
                                 "title":"The Orbit_id Schema",
                                 "default":"",
                                 "examples":[
                                    "13"
                                 ],
                                 "pattern":"^(.*)$"
                              },
                              "orbit_determination_date":{
                                 "$id":"#/properties/near_earth_objects/properties/2015-04-28/items/properties/orbital_data/properties/orbit_determination_date",
                                 "type":"string",
                                 "title":"The Orbit_determination_date Schema",
                                 "default":"",
                                 "examples":[
                                    "2017-04-06 08:34:25"
                                 ],
                                 "pattern":"^(.*)$"
                              },
                              "first_observation_date":{
                                 "$id":"#/properties/near_earth_objects/properties/2015-04-28/items/properties/orbital_data/properties/first_observation_date",
                                 "type":"string",
                                 "title":"The First_observation_date Schema",
                                 "default":"",
                                 "examples":[
                                    "2015-04-15"
                                 ],
                                 "pattern":"^(.*)$"
                              },
                              "last_observation_date":{
                                 "$id":"#/properties/near_earth_objects/properties/2015-04-28/items/properties/orbital_data/properties/last_observation_date",
                                 "type":"string",
                                 "title":"The Last_observation_date Schema",
                                 "default":"",
                                 "examples":[
                                    "2015-04-29"
                                 ],
                                 "pattern":"^(.*)$"
                              },
                              "data_arc_in_days":{
                                 "$id":"#/properties/near_earth_objects/properties/2015-04-28/items/properties/orbital_data/properties/data_arc_in_days",
                                 "type":"integer",
                                 "title":"The Data_arc_in_days Schema",
                                 "default":0,
                                 "examples":[
                                    14
                                 ]
                              },
                              "observations_used":{
                                 "$id":"#/properties/near_earth_objects/properties/2015-04-28/items/properties/orbital_data/properties/observations_used",
                                 "type":"integer",
                                 "title":"The Observations_used Schema",
                                 "default":0,
                                 "examples":[
                                    75
                                 ]
                              },
                              "orbit_uncertainty":{
                                 "$id":"#/properties/near_earth_objects/properties/2015-04-28/items/properties/orbital_data/properties/orbit_uncertainty",
                                 "type":"string",
                                 "title":"The Orbit_uncertainty Schema",
                                 "default":"",
                                 "examples":[
                                    "8"
                                 ],
                                 "pattern":"^(.*)$"
                              },
                              "minimum_orbit_intersection":{
                                 "$id":"#/properties/near_earth_objects/properties/2015-04-28/items/properties/orbital_data/properties/minimum_orbit_intersection",
                                 "type":"string",
                                 "title":"The Minimum_orbit_intersection Schema",
                                 "default":"",
                                 "examples":[
                                    ".00116799"
                                 ],
                                 "pattern":"^(.*)$"
                              },
                              "jupiter_tisserand_invariant":{
                                 "$id":"#/properties/near_earth_objects/properties/2015-04-28/items/properties/orbital_data/properties/jupiter_tisserand_invariant",
                                 "type":"string",
                                 "title":"The Jupiter_tisserand_invariant Schema",
                                 "default":"",
                                 "examples":[
                                    "3.736"
                                 ],
                                 "pattern":"^(.*)$"
                              },
                              "epoch_osculation":{
                                 "$id":"#/properties/near_earth_objects/properties/2015-04-28/items/properties/orbital_data/properties/epoch_osculation",
                                 "type":"string",
                                 "title":"The Epoch_osculation Schema",
                                 "default":"",
                                 "examples":[
                                    "2457132.5"
                                 ],
                                 "pattern":"^(.*)$"
                              },
                              "eccentricity":{
                                 "$id":"#/properties/near_earth_objects/properties/2015-04-28/items/properties/orbital_data/properties/eccentricity",
                                 "type":"string",
                                 "title":"The Eccentricity Schema",
                                 "default":"",
                                 "examples":[
                                    ".5321848569625284"
                                 ],
                                 "pattern":"^(.*)$"
                              },
                              "semi_major_axis":{
                                 "$id":"#/properties/near_earth_objects/properties/2015-04-28/items/properties/orbital_data/properties/semi_major_axis",
                                 "type":"string",
                                 "title":"The Semi_major_axis Schema",
                                 "default":"",
                                 "examples":[
                                    "1.921395888080897"
                                 ],
                                 "pattern":"^(.*)$"
                              },
                              "inclination":{
                                 "$id":"#/properties/near_earth_objects/properties/2015-04-28/items/properties/orbital_data/properties/inclination",
                                 "type":"string",
                                 "title":"The Inclination Schema",
                                 "default":"",
                                 "examples":[
                                    "2.446718725240242"
                                 ],
                                 "pattern":"^(.*)$"
                              },
                              "ascending_node_longitude":{
                                 "$id":"#/properties/near_earth_objects/properties/2015-04-28/items/properties/orbital_data/properties/ascending_node_longitude",
                                 "type":"string",
                                 "title":"The Ascending_node_longitude Schema",
                                 "default":"",
                                 "examples":[
                                    "39.09875528148609"
                                 ],
                                 "pattern":"^(.*)$"
                              },
                              "orbital_period":{
                                 "$id":"#/properties/near_earth_objects/properties/2015-04-28/items/properties/orbital_data/properties/orbital_period",
                                 "type":"string",
                                 "title":"The Orbital_period Schema",
                                 "default":"",
                                 "examples":[
                                    "972.8003368023267"
                                 ],
                                 "pattern":"^(.*)$"
                              },
                              "perihelion_distance":{
                                 "$id":"#/properties/near_earth_objects/properties/2015-04-28/items/properties/orbital_data/properties/perihelion_distance",
                                 "type":"string",
                                 "title":"The Perihelion_distance Schema",
                                 "default":"",
                                 "examples":[
                                    ".8988580922141747"
                                 ],
                                 "pattern":"^(.*)$"
                              },
                              "perihelion_argument":{
                                 "$id":"#/properties/near_earth_objects/properties/2015-04-28/items/properties/orbital_data/properties/perihelion_argument",
                                 "type":"string",
                                 "title":"The Perihelion_argument Schema",
                                 "default":"",
                                 "examples":[
                                    "227.9448672138525"
                                 ],
                                 "pattern":"^(.*)$"
                              },
                              "aphelion_distance":{
                                 "$id":"#/properties/near_earth_objects/properties/2015-04-28/items/properties/orbital_data/properties/aphelion_distance",
                                 "type":"string",
                                 "title":"The Aphelion_distance Schema",
                                 "default":"",
                                 "examples":[
                                    "2.94393368394762"
                                 ],
                                 "pattern":"^(.*)$"
                              },
                              "perihelion_time":{
                                 "$id":"#/properties/near_earth_objects/properties/2015-04-28/items/properties/orbital_data/properties/perihelion_time",
                                 "type":"string",
                                 "title":"The Perihelion_time Schema",
                                 "default":"",
                                 "examples":[
                                    "2457177.632204738086"
                                 ],
                                 "pattern":"^(.*)$"
                              },
                              "mean_anomaly":{
                                 "$id":"#/properties/near_earth_objects/properties/2015-04-28/items/properties/orbital_data/properties/mean_anomaly",
                                 "type":"string",
                                 "title":"The Mean_anomaly Schema",
                                 "default":"",
                                 "examples":[
                                    "343.2981208054285"
                                 ],
                                 "pattern":"^(.*)$"
                              },
                              "mean_motion":{
                                 "$id":"#/properties/near_earth_objects/properties/2015-04-28/items/properties/orbital_data/properties/mean_motion",
                                 "type":"string",
                                 "title":"The Mean_motion Schema",
                                 "default":"",
                                 "examples":[
                                    ".3700656613497371"
                                 ],
                                 "pattern":"^(.*)$"
                              },
                              "equinox":{
                                 "$id":"#/properties/near_earth_objects/properties/2015-04-28/items/properties/orbital_data/properties/equinox",
                                 "type":"string",
                                 "title":"The Equinox Schema",
                                 "default":"",
                                 "examples":[
                                    "J2000"
                                 ],
                                 "pattern":"^(.*)$"
                              },
                              "orbit_class":{
                                 "$id":"#/properties/near_earth_objects/properties/2015-04-28/items/properties/orbital_data/properties/orbit_class",
                                 "type":"object",
                                 "title":"The Orbit_class Schema",
                                 "required":[
                                    "orbit_class_type",
                                    "orbit_class_description",
                                    "orbit_class_range"
                                 ],
                                 "properties":{
                                    "orbit_class_type":{
                                       "$id":"#/properties/near_earth_objects/properties/2015-04-28/items/properties/orbital_data/properties/orbit_class/properties/orbit_class_type",
                                       "type":"string",
                                       "title":"The Orbit_class_type Schema",
                                       "default":"",
                                       "examples":[
                                          "APO"
                                       ],
                                       "pattern":"^(.*)$"
                                    },
                                    "orbit_class_description":{
                                       "$id":"#/properties/near_earth_objects/properties/2015-04-28/items/properties/orbital_data/properties/orbit_class/properties/orbit_class_description",
                                       "type":"string",
                                       "title":"The Orbit_class_description Schema",
                                       "default":"",
                                       "examples":[
                                          "Near-Earth asteroid orbits which cross the Earth’s orbit similar to that of 1862 Apollo"
                                       ],
                                       "pattern":"^(.*)$"
                                    },
                                    "orbit_class_range":{
                                       "$id":"#/properties/near_earth_objects/properties/2015-04-28/items/properties/orbital_data/properties/orbit_class/properties/orbit_class_range",
                                       "type":"string",
                                       "title":"The Orbit_class_range Schema",
                                       "default":"",
                                       "examples":[
                                          "a (semi-major axis) > 1.0 AU; q (perihelion) < 1.017 AU"
                                       ],
                                       "pattern":"^(.*)$"
                                    }
                                 }
                              }
                           }
                        },
                        "is_sentry_object":{
                           "$id":"#/properties/near_earth_objects/properties/2015-04-28/items/properties/is_sentry_object",
                           "type":"boolean",
                           "title":"The Is_sentry_object Schema",
                           "default":false,
                           "examples":[
                              false
                           ]
                        }
                     }
                  }
               }
            }
         }
      }
   }
}